<svg xmlns="http://www.w3.org/2000/svg" xmlns:xlink="http://www.w3.org/1999/xlink" width="85.75822pt" height="71.53185pt" viewBox="-0.2 -0.2 85.75822 71.53185 "> 
<g transform="translate(0, 71.33185 ) scale(1,-1) translate(0,0.2 )"> 
        <g> 
 <g stroke="rgb(0.0%,0.0%,0.0%)"> 
 <g fill="rgb(0.0%,0.0%,0.0%)"> 
 <g stroke-width="0.4pt"> 
 <g> 
 </g> 
 <g> 
 <path d=" M  0.0 0.0 L  28.45274 0.0 L  28.45274 28.45274 L  0.0 28.45274 Z  " style="fill:none"/> 
 <path d=" M  56.90549 0.0 L  85.35823 0.0 L  85.35823 28.45274 L  56.90549 28.45274 Z  " style="fill:none"/> 
 <path d=" M  42.67911 42.67911 L  71.13185 42.67911 L  71.13185 71.13185 L  42.67911 71.13185 Z  " style="fill:none"/> 
 </g> 
 </g> 
 </g> 
 </g> 
 </g> 
                   </g> 
</svg> 
