<svg xmlns="http://www.w3.org/2000/svg" xmlns:xlink="http://www.w3.org/1999/xlink" width="20.4pt" height="20.4pt" viewBox="-10.2 -10.2 20.4 20.4 "> 
<g transform="translate(0, 10.2 ) scale(1,-1) translate(0,10.2 )"> 
           <g> 
 <g stroke="rgb(0.0%,0.0%,0.0%)"> 
 <g fill="rgb(0.0%,0.0%,0.0%)"> 
 <g stroke-width="0.4pt"> 
 <g> 
 </g> 
 <g> 
 <path d=" M  0.0 0.0 M  10.0 0.0 C  10.0 5.54993 5.54993 10.0 0.0 10.0 C  -5.54993 10.0 -10.0 5.54993 -10.0 0.0 C  -10.0 -5.54993 -5.54993 -10.0 0.0 -10.0 C  5.54993 -10.0 10.0 -5.54993 10.0 0.0 Z M  0.0 0.0  " style="fill:none"/> 
 </g> 
 </g> 
 </g> 
 </g> 
 </g> 
 
      </g> 
</svg> 
