<svg xmlns="http://www.w3.org/2000/svg" xmlns:xlink="http://www.w3.org/1999/xlink" width="46.14322pt" height="8.69046pt" viewBox="-1.73206 -1.0 46.14322 8.69046 "> 
<g transform="translate(0, 7.69046 ) scale(1,-1) translate(0,1.0 )"> 
         <g> 
 <g stroke="rgb(0.0%,0.0%,0.0%)"> 
 <g fill="rgb(0.0%,0.0%,0.0%)"> 
 <g stroke-width="0.4pt"> 
 <g> 
 </g> 
 <g> 
 <g> 
 <g stroke="rgb(75.0%,75.0%,75.0%)"> 
 <g fill="rgb(75.0%,75.0%,75.0%)"> 
 <path d=" M  0.0 0.0 L  14.22636 5.69046 L  28.45274 0.0 L  42.67911 5.69046  " style="fill:none"/> 
 <g> 
 <g fill="rgb(80.0003%,80.0003%,16.00037%)"> 
 <g stroke="rgb(0.0%,0.0%,0.0%)"> 
 <path d=" M  0.0 2.0 L  1.73206 -1.0 L  -1.73206 -1.0 Z  " style="fill:none"/> 
 <path d=" M  14.22636 7.69046 L  15.95842 4.69046 L  12.49431 4.69046 Z  " style="fill:none"/> 
 <path d=" M  28.45274 2.0 L  30.1848 -1.0 L  26.72069 -1.0 Z  " style="fill:none"/> 
 <path d=" M  42.67911 7.69046 L  44.41116 4.69046 L  40.94705 4.69046 Z  " style="fill:none"/> 
 </g> 
 </g> 
 </g> 
 </g> 
 </g> 
 </g> 
 </g> 
 </g> 
 </g> 
 </g> 
 </g> 
      </g> 
</svg> 
