<svg xmlns="http://www.w3.org/2000/svg" xmlns:xlink="http://www.w3.org/1999/xlink" width="57.10547pt" height="28.65271pt" viewBox="-28.55273 -14.32635 57.10547 28.65271 "> 
<g transform="translate(0, 14.32635 ) scale(1,-1) translate(0,14.32635 )"> 
                 <g> 
 <g stroke="rgb(0.0%,0.0%,0.0%)"> 
 <g fill="rgb(0.0%,0.0%,0.0%)"> 
 <g stroke-width="0.4pt"> 
 <g> 
 </g> 
 <g> 
 <g> 
 <g stroke="rgb(50.0%,50.0%,50.0%)"> 
 <g fill="rgb(50.0%,50.0%,50.0%)"> 
 <g stroke-width="0.2pt"> 
 <path d=" M  -28.45274 -14.22636 M  -28.45274 0.0 L  28.45274 0.0 M  -28.45274 -14.22636 L  -28.45274 14.22636 M  0.0 -14.22636 L  0.0 14.22636 M  28.44275 -14.22636 L  28.44275 14.22636  " style="fill:none"/> 
 </g> 
 </g> 
 </g> 
 </g> 
 <g> 
 <g transform="matrix(1.0,0.0,0.0,1.0,-12.50003,-6.94444)"> 
 <g fill="rgb(0.0%,0.0%,0.0%)"> 
 <text style="stroke:none" transform="scale(1,-1) translate(12.50003,0)" text-anchor="middle"  font-size="10"> 
lovely</text> 
</g> 
 </g> 
 </g> 
 </g> 
 </g> 
 </g> 
 </g> 
 </g> 
 
                 </g> 
</svg> 
