<svg xmlns="http://www.w3.org/2000/svg" xmlns:xlink="http://www.w3.org/1999/xlink" width="9.01108pt" height="9.01108pt" viewBox="-4.50554 -4.50554 9.01108 9.01108 "> 
<g transform="translate(0, 4.50554 ) scale(1,-1) translate(0,4.50554 )"> 
      <g> 
 <g stroke="rgb(0.0%,0.0%,0.0%)"> 
 <g fill="rgb(0.0%,0.0%,0.0%)"> 
 <g stroke-width="0.4pt"> 
 <g> 
 </g> 
 <g> 
 <path d=" M  4.30554 0.0 C  4.30554 2.38954 2.38954 4.30554 0.0 4.30554 C  -2.38954 4.30554 -4.30554 2.38954 -4.30554 0.0 C  -4.30554 -2.38954 -2.38954 -4.30554 0.0 -4.30554 C  2.38954 -4.30554 4.30554 -2.38954 4.30554 0.0 Z M  0.0 0.0  " style="fill:none"/> 
 </g> 
 </g> 
 </g> 
 </g> 
 </g> 
  </g> 
</svg> 
