<svg xmlns="http://www.w3.org/2000/svg" xmlns:xlink="http://www.w3.org/1999/xlink" width="66.85864pt" height="33.1188pt" viewBox="-28.55273 -18.79245 66.85864 33.1188 "> 
<g transform="translate(0, 14.32635 ) scale(1,-1) translate(0,18.79245 )"> 
                 <g> 
 <g stroke="rgb(0.0%,0.0%,0.0%)"> 
 <g fill="rgb(0.0%,0.0%,0.0%)"> 
 <g stroke-width="0.4pt"> 
 <g> 
 </g> 
 <g> 
 <g> 
 <g stroke="rgb(50.0%,50.0%,50.0%)"> 
 <g fill="rgb(50.0%,50.0%,50.0%)"> 
 <g stroke-width="0.2pt"> 
 <path d=" M  -28.45274 -14.22636 M  -28.45274 0.0 L  28.45274 0.0 M  -28.45274 -14.22636 L  -28.45274 14.22636 M  0.0 -14.22636 L  0.0 14.22636 M  28.44275 -14.22636 L  28.44275 14.22636  " style="fill:none"/> 
 </g> 
 </g> 
 </g> 
 </g> 
 <g> 
 <g transform="matrix(0.86603,0.5,-0.5,0.86603,17.62738,-20.47638)"> 
 <g fill="rgb(0.0%,0.0%,0.0%)"> 
 <text style="stroke:none" transform="scale(1,-1) translate(12.50003,0)" text-anchor="middle"  font-size="10"> 
lovely</text> 
</g> 
 </g> 
 </g> 
 </g> 
 </g> 
 </g> 
 </g> 
 </g> 
 
                    </g> 
</svg> 
