<svg xmlns="http://www.w3.org/2000/svg" xmlns:xlink="http://www.w3.org/1999/xlink" width="42.84676pt" height="42.46312pt" viewBox="28.25275 -0.2 42.84676 42.46312 "> 
<g transform="translate(0, 42.26312 ) scale(1,-1) translate(0,0.2 )"> 
 <g> 
 <g stroke="rgb(0.0%,0.0%,0.0%)"> 
 <g fill="rgb(0.0%,0.0%,0.0%)"> 
 <g stroke-width="0.4pt"> 
 <g> 
 </g> 
 <g> 
 <path d=" M  28.45274 0.0 L  56.90549 28.45274  " style="fill:none"/> 
 <g> 
 <g> 
 <g transform="matrix(1.0,0.0,0.0,1.0,46.04445,31.98572)"> 
 <g fill="rgb(0.0%,0.0%,0.0%)"> 
 <text style="stroke:none" transform="scale(1,-1) translate(10.86104,0)" text-anchor="middle"  font-size="10"> 
<tspan font-family="cmti" font-size="10">italic</tspan></text> 
</g> 
 </g> 
 </g> 
 </g> 
 </g> 
 </g> 
 </g> 
 </g> 
 </g> 
       </g> 
</svg> 
