<svg xmlns="http://www.w3.org/2000/svg" xmlns:xlink="http://www.w3.org/1999/xlink" width="45.50754pt" height="8.51889pt" viewBox="-1.41422 -1.41422 45.50754 8.51889 "> 
<g transform="translate(0, 7.10468 ) scale(1,-1) translate(0,1.41422 )"> 
        <g> 
 <g stroke="rgb(0.0%,0.0%,0.0%)"> 
 <g fill="rgb(0.0%,0.0%,0.0%)"> 
 <g stroke-width="0.4pt"> 
 <g> 
 </g> 
 <g> 
 <g> 
 <g stroke="rgb(75.0%,75.0%,75.0%)"> 
 <g fill="rgb(75.0%,75.0%,75.0%)"> 
 <path d=" M  0.0 0.0 L  14.22636 5.69046 L  28.45274 0.0 L  42.67911 5.69046  " style="fill:none"/> 
 <g> 
 <g fill="rgb(80.0003%,80.0003%,16.00037%)"> 
 <g stroke="rgb(0.0%,0.0%,0.0%)"> 
 <path d=" M  -1.41422 -1.41422 L  1.41422 1.41422 M  -1.41422 1.41422 L  1.41422 -1.41422  " style="fill:none"/> 
 <path d=" M  12.81215 4.27625 L  15.64058 7.10468 M  12.81215 7.10468 L  15.64058 4.27625  " style="fill:none"/> 
 <path d=" M  27.03853 -1.41422 L  29.86696 1.41422 M  27.03853 1.41422 L  29.86696 -1.41422  " style="fill:none"/> 
 <path d=" M  41.2649 4.27625 L  44.09332 7.10468 M  41.2649 7.10468 L  44.09332 4.27625  " style="fill:none"/> 
 </g> 
 </g> 
 </g> 
 </g> 
 </g> 
 </g> 
 </g> 
 </g> 
 </g> 
 </g> 
 </g> 
      </g> 
</svg> 
