<svg xmlns="http://www.w3.org/2000/svg" xmlns:xlink="http://www.w3.org/1999/xlink" width="100.375pt" height="100.375pt" viewBox="0.0 0.0 100.375 100.375 "> 
<g transform="translate(0, 100.375 ) scale(1,-1) translate(0,0.0 )"> 
        <g> 
  <linearGradient id="pgfsh101" gradientTransform="rotate(90)"> 
 <stop offset=" 0.0" stop-color=" rgb(100.0%,0.0%,0.0%) "/> 
 <stop offset=" 0.25" stop-color=" rgb(0.0%,100.0%,0.0%) "/> 
 <stop offset=" 0.75" stop-color=" rgb(0.0%,0.0%,100.0%) "/> 
 <stop offset=" 1.0" stop-color=" rgb(0.0%,0.0%,0.0%) "/> 
 </linearGradient> 
 <rect width="100.375pt" height="100.375pt" style="fill:url(#pgfsh101); stroke:none"/> 
 </g> 
                       </g> 
</svg> 
