<svg xmlns="http://www.w3.org/2000/svg" xmlns:xlink="http://www.w3.org/1999/xlink" width="20.24374pt" height="11.77148pt" viewBox="-3.73297 -3.73297 20.24374 11.77148 "> 
<g transform="translate(0, 8.03851 ) scale(1,-1) translate(0,3.73297 )"> 
         <g> 
 <g stroke="rgb(0.0%,0.0%,0.0%)"> 
 <g fill="rgb(0.0%,0.0%,0.0%)"> 
 <g stroke-width="0.4pt"> 
 <g> 
 </g> 
 <g> 
 <g> 
 <g> 
 <g transform="matrix(1.0,0.0,0.0,1.0,0.0,0.0)"> 
 <g fill="rgb(0.0%,0.0%,0.0%)"> 
 <text style="stroke:none" transform="scale(1,-1) translate(6.3889,0)" text-anchor="middle"  font-size="10"> 
me</text> 
</g> 
 </g> 
 </g> 
 <path d=" M  -3.53297 -3.53297 L  16.31078 7.83852 M  -3.53297 7.83852 L  16.31078 -3.53297  " style="fill:none"/> 
 </g> 
 </g> 
 </g> 
 </g> 
 </g> 
 </g> 
  </g> 
</svg> 
