<svg xmlns="http://www.w3.org/2000/svg" xmlns:xlink="http://www.w3.org/1999/xlink" width="152.26372pt" height="38.45274pt" viewBox="-5.0 -5.0 152.26372 38.45274 "> 
<g transform="translate(0, 33.45274 ) scale(1,-1) translate(0,5.0 )"> 
         <g> 
 <g stroke="rgb(0.0%,0.0%,0.0%)"> 
 <g fill="rgb(0.0%,0.0%,0.0%)"> 
 <g stroke-width="0.4pt"> 
 <g> 
 </g> 
 <g> 
 <g> 
 <g stroke-width="10.0pt"> 
 <path d=" M  0.0 0.0 C  28.45274 28.45274 28.45274 28.45274 113.81097 0.0 C  142.26372 0.0 142.26372 28.45274 113.81097 28.45274  " style="fill:none"/> 
 </g> 
 </g> 
 <g> 
 <g stroke="rgb(50.0%,50.0%,50.0%)"> 
 <g fill="rgb(50.0%,50.0%,50.0%)"> 
 <path d=" M  0.0 0.0 L  28.45274 28.45274 L  113.81097 0.0 L  142.26372 0.0 L  142.26372 28.45274 L  113.81097 28.45274  " style="fill:none"/> 
 </g> 
 </g> 
 </g> 
 </g> 
 </g> 
 </g> 
 </g> 
 </g> 
                                     </g> 
</svg> 
