<svg xmlns="http://www.w3.org/2000/svg" xmlns:xlink="http://www.w3.org/1999/xlink" width="113.81096pt" height="71.13184pt" viewBox="-7.11317 -7.11317 113.81096 71.13184 "> 
<g transform="translate(0, 64.01866 ) scale(1,-1) translate(0,7.11317 )"> 
          <g> 
 <g stroke="rgb(0.0%,0.0%,0.0%)"> 
 <g fill="rgb(0.0%,0.0%,0.0%)"> 
 <g stroke-width="0.4pt"> 
 <g> 
 </g> 
 <g> 
 <g stroke-width="4.30554pt"> 
 <path d=" M  12.28883 7.02222 L  99.58464 56.9055  " style="fill:none"/> 
 <g> 
 <g transform="matrix(-0.86877,-0.49648,0.49648,-0.86877,12.28883,7.02222)"> 
 <g> 
 <path d=" M  14.14503 0.0 C  9.95384 0.78583 3.14334 3.14334 -1.57167 5.89375 L  -1.57167 -5.89375 C  3.14334 -3.14334 9.95384 -0.78583 14.14503 0.0  " style="stroke:none"/> 
 </g> 
 </g> 
 </g> 
 </g> 
 </g> 
 </g> 
 </g> 
 </g> 
 </g> 
                         </g> 
</svg> 
