<svg xmlns="http://www.w3.org/2000/svg" xmlns:xlink="http://www.w3.org/1999/xlink" width="69.14879pt" height="65.201pt" viewBox="20.35722 -4.14775 69.14879 65.201 "> 
<g transform="translate(0, 61.05325 ) scale(1,-1) translate(0,4.14775 )"> 
  <g> 
 <g stroke="rgb(0.0%,0.0%,0.0%)"> 
 <g fill="rgb(0.0%,0.0%,0.0%)"> 
 <g stroke-width="0.4pt"> 
 <g> 
 </g> 
 <path d=" M  28.45274 0.0 L  56.9055 28.45274 L  85.35826 28.45274 L  28.45274 56.9055 M  56.9055 28.45274 C  64.80103 32.4005 89.30602 24.50499 85.35826 28.45274 C  81.4105 32.4005 36.34827 60.85326 28.45274 56.9055 C  20.55722 52.95775 24.50499 3.94775 28.45274 0.0 C  32.4005 -3.94775 49.00998 24.50499 56.9055 28.45274 Z  " style="fill:none"/> 
 </g> 
 </g> 
 </g> 
 </g> 
                    </g> 
</svg> 
