<svg xmlns="http://www.w3.org/2000/svg" xmlns:xlink="http://www.w3.org/1999/xlink" width="31.45274pt" height="31.45274pt" viewBox="-1.5 -1.5 31.45274 31.45274 "> 
<g transform="translate(0, 29.95274 ) scale(1,-1) translate(0,1.5 )"> 
        <g> 
 <g stroke="rgb(0.0%,0.0%,0.0%)"> 
 <g fill="rgb(0.0%,0.0%,0.0%)"> 
 <g stroke-width="0.4pt"> 
 <g> 
 </g> 
 <g> 
 <path d=" M  0.0 0.0 L  28.45274 28.45274  " style="fill:none"/> 
 <g> 
 <g stroke="rgb(100.0%,100.0%,100.0%)"> 
 <g stroke-width="1.2pt"> 
 <g> 
 <g stroke-width="3.0pt"> 
 <path d=" M  0.0 28.45274 L  28.45274 0.0  " style="fill:none"/> 
 <g stroke-width="0.6pt"> 
 <g stroke="rgb(100.0%,0.0%,0.0%)"> 
 <path d=" M  0.0 28.45274 L  28.45274 0.0  " style="fill:none"/> 
 </g> 
 </g> 
 </g> 
 </g> 
 </g> 
 </g> 
 </g> 
 </g> 
 </g> 
 </g> 
 </g> 
 </g> 
  </g> 
</svg> 
