<svg xmlns="http://www.w3.org/2000/svg" xmlns:xlink="http://www.w3.org/1999/xlink" width="28.85274pt" height="14.62636pt" viewBox="-0.2 -0.2 28.85274 14.62636 "> 
<g transform="translate(0, 14.42636 ) scale(1,-1) translate(0,0.2 )"> 
        <g> 
 <g stroke="rgb(0.0%,0.0%,0.0%)"> 
 <g fill="rgb(0.0%,0.0%,0.0%)"> 
 <g stroke-width="0.4pt"> 
 <g> 
 </g> 
 <g> 
 <g> 
 <g stroke="rgb(100.0%,0.0%,0.0%)"> 
 <g fill="rgb(100.0%,0.0%,0.0%)"> 
 <path d=" M  0.0 0.0 L  28.45274 0.0  " style="fill:none"/> 
 <path d=" M  0.0 2.84526 L  28.45274 2.84526  " style="fill:none"/> 
 </g> 
 </g> 
 </g> 
 <path d=" M  0.0 5.69054 L  28.45274 5.69054  " style="fill:none"/> 
 <g> 
 <g stroke="rgb(0.0%,100.0%,0.0%)"> 
 <g fill="rgb(0.0%,100.0%,0.0%)"> 
 <path d=" M  0.0 8.53581 L  28.45274 8.53581  " style="fill:none"/> 
 <path d=" M  0.0 11.38109 L  28.45274 11.38109  " style="fill:none"/> 
 <g> 
 <g stroke="rgb(0.0%,0.0%,100.0%)"> 
 <g fill="rgb(0.0%,0.0%,100.0%)"> 
 <path d=" M  0.0 14.22636 L  28.45274 14.22636  " style="fill:none"/> 
 </g> 
 </g> 
 </g> 
 </g> 
 </g> 
 </g> 
 </g> 
 </g> 
 </g> 
 </g> 
 </g> 
  </g> 
</svg> 
