<svg xmlns="http://www.w3.org/2000/svg" xmlns:xlink="http://www.w3.org/1999/xlink" width="30.06696pt" height="31.28117pt" viewBox="-0.2 -1.41422 30.06696 31.28117 "> 
<g transform="translate(0, 29.86696 ) scale(1,-1) translate(0,1.41422 )"> 
        <g> 
 <g stroke="rgb(0.0%,0.0%,0.0%)"> 
 <g fill="rgb(0.0%,0.0%,0.0%)"> 
 <g stroke-width="0.4pt"> 
 <g> 
 </g> 
 <g> 
 <path d=" M  0.0 0.0 L  28.45274 0.0 M  0.0 5.69046 L  22.76227 5.69046 M  0.0 11.38092 L  17.07181 11.38092 M  0.0 28.45274 L  5.69046 28.45274  " style="fill:none"/> 
 <g> 
 <path d=" M  27.03853 -1.41422 L  29.86696 1.41422 M  27.03853 1.41422 L  29.86696 -1.41422  " style="fill:none"/> 
 <path d=" M  21.34805 4.27625 L  24.17648 7.10468 M  21.34805 7.10468 L  24.17648 4.27625  " style="fill:none"/> 
 <path d=" M  15.6576 9.9667 L  18.48602 12.79514 M  15.6576 12.79514 L  18.48602 9.9667  " style="fill:none"/> 
 <path d=" M  4.27625 27.03853 L  7.10468 29.86696 M  4.27625 29.86696 L  7.10468 27.03853  " style="fill:none"/> 
 </g> 
 </g> 
 </g> 
 </g> 
 </g> 
 </g> 
  </g> 
</svg> 
