<svg xmlns="http://www.w3.org/2000/svg" xmlns:xlink="http://www.w3.org/1999/xlink" width="89.66377pt" height="32.75829pt" viewBox="-2.15277 -2.15277 89.66377 32.75829 "> 
<g transform="translate(0, 30.60551 ) scale(1,-1) translate(0,2.15277 )"> 
         <g> 
 <g stroke="rgb(0.0%,0.0%,0.0%)"> 
 <g fill="rgb(0.0%,0.0%,0.0%)"> 
 <g stroke-width="0.4pt"> 
 <g> 
 </g> 
 <g> 
 <g stroke-width="4.30554pt"> 
 <path d=" M  0.0 0.0 L  85.35823 28.45274  " style="fill:none"/> 
 <g> 
 <g fill="rgb(80.0003%,80.0003%,16.00037%)"> 
 <g stroke-opacity="0.5"> 
 <path d=" M  28.45274 0.0 M  28.45274 0.0 L  28.45274 28.45274 L  56.90549 28.45274 L  56.90549 0.0 Z M  56.90549 28.45274  " /> 
 </g> 
 </g> 
 </g> 
 </g> 
 </g> 
 </g> 
 </g> 
 </g> 
 </g> 
                   </g> 
</svg> 
