<svg xmlns="http://www.w3.org/2000/svg" xmlns:xlink="http://www.w3.org/1999/xlink" width="78.64505pt" height="91.96661pt" viewBox="-35.76588 -85.55824 78.64505 91.96661 "> 
<g transform="translate(0, 6.40837 ) scale(1,-1) translate(0,85.55824 )"> 
                   <g> 
 <g stroke="rgb(0.0%,0.0%,0.0%)"> 
 <g fill="rgb(0.0%,0.0%,0.0%)"> 
 <g stroke-width="0.4pt"> 
 <g> 
 </g> 
 <g> 
 <g> 
 <g> 
 <g transform="matrix(1.0,0.0,0.0,1.0,-9.04169,-3.0754)"> 
 <g fill="rgb(0.0%,0.0%,0.0%)"> 
 <text style="stroke:none" transform="scale(1,-1) translate(9.04169,0)" text-anchor="middle"  font-size="10"> 
root</text> 
</g> 
 </g> 
 </g> 
 </g> 
 <g> 
 <g> 
 </g> 
 <path d=" M  -28.45273 -42.67912 M  -4.40388 -6.60837 L  -28.45273 -42.67912  " style="fill:none"/> 
 <g> 
 <g> 
 </g> 
 <path d=" M  -28.45273 -42.67912 L  -35.56589 -85.35825  " style="fill:none"/> 
 </g> 
 <g> 
 <g> 
 </g> 
 <path d=" M  -28.45273 -42.67912 L  -21.33952 -85.35825  " style="fill:none"/> 
 </g> 
 </g> 
 <g> 
 <g> 
 </g> 
 <path d=" M  28.45277 -42.67912 M  4.40399 -6.60837 L  28.45277 -42.67912  " style="fill:none"/> 
 <g> 
 <g> 
 </g> 
 <path d=" M  28.45277 -42.67912 L  14.22644 -85.35825  " style="fill:none"/> 
 </g> 
 <g> 
 <g> 
 </g> 
 <path d=" M  28.45277 -42.67912 L  28.4528 -85.35825  " style="fill:none"/> 
 </g> 
 <g> 
 <g> 
 </g> 
 <path d=" M  28.45277 -42.67912 L  42.67917 -85.35825  " style="fill:none"/> 
 </g> 
 </g> 
 </g> 
 </g> 
 </g> 
 </g> 
 </g> 
 
                        </g> 
</svg> 
