<svg xmlns="http://www.w3.org/2000/svg" xmlns:xlink="http://www.w3.org/1999/xlink" width="28.85274pt" height="28.85274pt" viewBox="-0.2 -0.2 28.85274 28.85274 "> 
<g transform="translate(0, 28.65274 ) scale(1,-1) translate(0,0.2 )"> 
        <g> 
 <g stroke="rgb(0.0%,0.0%,0.0%)"> 
 <g fill="rgb(0.0%,0.0%,0.0%)"> 
 <g stroke-width="0.4pt"> 
 <g> 
 </g> 
 <g> 
 <path d=" M  0.0 0.0 M  0.0 0.0 L  0.0 28.45274 L  28.45274 28.45274 L  28.45274 0.0 Z M  28.45274 28.45274 M  0.0 0.0 C  14.22636 0.0 25.25171 22.05069 28.45274 28.45274  " style="fill:none"/> 
 </g> 
 </g> 
 </g> 
 </g> 
 </g> 
  </g> 
</svg> 
